{
  "profiles": {
    "Api.karim_store.Datas.Repository.Contract": {
      "commandName": "Project",
      "launchBrowser": true,
      "environmentVariables": {
        "ASPNETCORE_ENVIRONMENT": "Development"
      },
      "applicationUrl": "https://localhost:64888;http://localhost:64891"
    }
  }
}