{
  "profiles": {
    "Api.karim_store.Datas.Context.Contract": {
      "commandName": "Project",
      "launchBrowser": true,
      "environmentVariables": {
        "ASPNETCORE_ENVIRONMENT": "Development"
      },
      "applicationUrl": "https://localhost:64890;http://localhost:64893"
    }
  }
}